{
    "games": [
        {
            "id": "game1",
            "name": "The first game",
            "description": "Lorem ipsum dolor sit amet, consectetur adipisicing elit. Accusamus autem dolor pariatur. At, perferendis, saepe."
        },
        {
            "id": "game2",
            "name": "The second game",
            "description": "Alias atque cum eligendi exercitationem iusto officiis placeat ratione rem? Eaque possimus quam vitae voluptatum."
        },
        {
            "id": "game3",
            "name": "The third game",
            "description": "Accusantium, adipisci consectetur, culpa cum cupiditate doloribus et iure laudantium maxime minus quis rerum tenetur."
        },
        {
            "id": "game4",
            "name": "Another game",
            "description": "Consequuntur dolor nobis similique!"
        },
        {
            "id": "game5",
            "name": "Yet another game",
            "description": "Ad alias aliquid aut delectus dicta eaque excepturi inventore"
        }
    ]
}
